module gitlab.com/bigspeed/blazer

go 1.19

require github.com/fatih/color v1.14.1

require (
	github.com/mattn/go-colorable v0.1.13 // indirect
	github.com/mattn/go-isatty v0.0.17 // indirect
	golang.org/x/sys v0.3.0 // indirect
)
